<svg width="98" height="100" viewBox="0 0 98 100" fill="none" xmlns="http://www.w3.org/2000/svg">
<path d="M0.678101 85.4885C0.678101 86.5931 1.57353 87.4885 2.6781 87.4885H50.9616C51.492 87.4885 52.0007 87.2778 52.3758 86.9027L62.3712 76.9073C63.6312 75.6473 65.7854 76.5397 65.7854 78.3215V91.5923C65.7854 92.6969 64.89 93.5923 63.7854 93.5923H2.6781C1.57353 93.5923 0.678101 94.4877 0.678101 95.5923V97.6961C0.678101 98.8007 1.57353 99.6961 2.6781 99.6961H67.8893C70.0984 99.6961 71.8893 97.9053 71.8893 95.6961V4.00049C71.8893 1.79135 70.0984 0.000488281 67.8893 0.000488281H4.6781C2.46896 0.000488281 0.678101 1.79135 0.678101 4.00049V85.4885ZM56.992 73.6544C55.7321 74.9144 53.5778 74.022 53.5778 72.2402V71.177C53.5778 70.0725 54.4733 69.177 55.5778 69.177H56.641C58.4228 69.177 59.3152 71.3313 58.0552 72.5913L56.992 73.6544ZM6.78191 8.10431C6.78191 6.99974 7.67734 6.1043 8.78191 6.1043H63.7854C64.89 6.1043 65.7854 6.99973 65.7854 8.1043V61.0732C65.7854 62.1778 64.89 63.0732 63.7854 63.0732H49.474C48.3694 63.0732 47.474 63.9687 47.474 65.0732V79.3847C47.474 80.4892 46.5786 81.3847 45.474 81.3847H8.78191C7.67734 81.3847 6.78191 80.4892 6.78191 79.3847V8.10431Z" fill="white"/>
<path d="M56 27H17C15.8954 27 15 27.8954 15 29V31C15 32.1046 15.8954 33 17 33H56C57.1046 33 58 32.1046 58 31V29C58 27.8954 57.1046 27 56 27Z" fill="white"/>
<path d="M56 39H17C15.8954 39 15 39.8954 15 41V43C15 44.1046 15.8954 45 17 45H56C57.1046 45 58 44.1046 58 43V41C58 39.8954 57.1046 39 56 39Z" fill="white"/>
<path d="M56 51H17C15.8954 51 15 51.8954 15 53V55C15 56.1046 15.8954 57 17 57H56C57.1046 57 58 56.1046 58 55V53C58 51.8954 57.1046 51 56 51Z" fill="white"/>
<path d="M56 15H17C15.8954 15 15 15.8954 15 17V19C15 20.1046 15.8954 21 17 21H56C57.1046 21 58 20.1046 58 19V17C58 15.8954 57.1046 15 56 15Z" fill="white"/>
<path d="M92.7094 6.10422C91.6047 6.10422 90.7092 5.20863 90.7094 4.10395L90.7097 2.00081C90.7098 0.896244 89.8145 0.000694451 88.7099 0.000547175L86.6061 0.000266666C85.5015 0.00011939 84.606 0.895431 84.6059 2L84.6056 4.10449C84.6054 5.20895 83.71 6.10422 82.6056 6.10422H79.993C78.8885 6.10422 77.993 6.99965 77.993 8.10422V81.6513C77.993 81.9839 78.076 82.3113 78.2345 82.6038L85.8988 96.7534C86.6553 98.15 88.6595 98.15 89.416 96.7534L97.0804 82.6038C97.2388 82.3113 97.3218 81.9839 97.3218 81.6513V8.10422C97.3218 6.99965 96.4264 6.10422 95.3218 6.10422H92.7094ZM91.218 80.1042C91.218 80.4368 91.135 80.7642 90.9766 81.0567L89.416 83.9378C88.6595 85.3344 86.6553 85.3344 85.8988 83.9378L84.3383 81.0567C84.1798 80.7642 84.0969 80.4368 84.0969 80.1042V26.4157C84.0969 25.3111 84.9923 24.4157 86.0969 24.4157H89.218C90.3225 24.4157 91.218 25.3111 91.218 26.4157V80.1042ZM91.218 16.3118C91.218 17.4164 90.3225 18.3118 89.218 18.3118H86.0969C84.9923 18.3118 84.0969 17.4164 84.0969 16.3118V14.208C84.0969 13.1035 84.9923 12.208 86.0969 12.208H89.218C90.3225 12.208 91.218 13.1035 91.218 14.208V16.3118Z" fill="white"/>
</svg>
