<svg width="30" height="30" viewBox="0 0 30 30" fill="none" xmlns="http://www.w3.org/2000/svg">
<g clip-path="url(#clip0_501_107)">
<path d="M11.6164 1.11682C10.4522 0.271958 9.22353 -0.0965573 7.96416 0.0215023C6.89543 0.121697 6.02941 0.474465 5.39007 1.06996C4.76834 1.6491 4.40929 2.41967 4.35175 3.29837C4.27583 4.45825 4.74874 5.72281 5.64928 6.76783C5.66506 6.78615 5.68122 6.80414 5.69726 6.82229H1.22113V15.345H2.28655V30H27.7134V15.3451H28.7789V6.82236H24.3026C24.3187 6.80424 24.3348 6.78621 24.3506 6.7679C25.2512 5.72287 25.7241 4.45828 25.6482 3.29843C25.5906 2.41974 25.2316 1.6491 24.6098 1.07002C23.9705 0.474497 23.1045 0.121762 22.0357 0.0215664C20.7764 -0.0964611 19.5477 0.272022 18.3835 1.11685C17.5266 1.73867 16.7052 2.62269 15.9419 3.7444C15.5796 4.27678 15.265 4.81156 14.9999 5.30503C14.7349 4.81156 14.4203 4.27678 14.058 3.7444C13.2948 2.62263 12.4733 1.73861 11.6164 1.11682ZM3.40207 9.64655V9.0033H26.5979V9.64658V13.1641H25.5325H18.6827H11.3172H4.4675H3.40207V9.64655ZM13.4982 15.3451H16.5018V19.7182L15 19.0226L13.4982 19.7182V15.3451ZM7.30147 5.34419C6.77888 4.73773 6.48974 4.02623 6.52807 3.4409C6.54889 3.12261 6.66618 2.86183 6.87661 2.6658C7.15137 2.40986 7.59786 2.24632 8.16776 2.19289C8.8891 2.12525 9.59361 2.34732 10.3215 2.87177C10.9709 3.33962 11.614 4.03518 12.2331 4.93911C12.6796 5.59096 13.0478 6.25746 13.329 6.82233H9.78685C8.79026 6.57293 7.91079 6.05133 7.30147 5.34419ZM25.5324 27.8191H4.4675V15.3451H11.3172V23.1319L15 21.4261L18.6827 23.1319V15.3451H25.5325V27.8191H25.5324ZM17.745 4.97128C18.3662 4.05836 19.012 3.35539 19.6645 2.88191C20.3972 2.3502 21.1062 2.1248 21.8322 2.19289C22.4022 2.24632 22.8486 2.40986 23.1234 2.6658C23.3338 2.86183 23.4511 3.12258 23.472 3.4409C23.5102 4.02623 23.2211 4.73776 22.6985 5.34419C22.0892 6.0513 21.2097 6.57293 20.2132 6.82233H16.6702C16.946 6.26837 17.3066 5.61546 17.745 4.97128Z" fill="white"/>
</g>
<defs>
<clipPath id="clip0_501_107">
<rect width="30" height="30" fill="white"/>
</clipPath>
</defs>
</svg>
