<svg width="120" height="120" viewBox="0 0 120 120" fill="none" xmlns="http://www.w3.org/2000/svg">
<rect width="120" height="120" fill="#CC0001"/>
<path d="M69.9964 35H50.0049V45H69.9964V35Z" fill="white"/>
<path d="M40.0081 49.646C40.0108 48.8794 40.0096 47.5835 40.0087 46.4414C40.0082 45.9029 40.0078 45.3986 40.0078 45L50.0035 45C50.0035 45.4165 50.0039 46.1298 50.0043 46.9605V46.9622C50.0053 48.9686 50.0067 51.6583 50.0041 52.5L50.0021 53.1187C49.9971 54.6496 49.9923 56.1145 50.0043 57.5C50.0561 63.5015 51.0879 68.0187 59.9996 70C68.9113 68.0187 69.9439 63.5015 69.9957 57.5C70.0077 56.1142 70.0029 54.6493 69.9979 53.1182L69.9959 52.5C69.9933 51.6589 69.9947 48.9728 69.9957 46.9669V46.962C69.9961 46.1307 69.9964 45.4167 69.9964 45L79.9922 45C79.9922 45.3988 79.9918 45.9035 79.9913 46.4424C79.9903 47.5843 79.9892 48.8796 79.9919 49.646L79.9925 49.8268C80.0072 54.1173 80.0237 58.9152 79.7946 61.55C79.7946 70 74.9928 76.25 59.9996 80C45.0064 76.25 40.2054 70 40.2054 61.55C39.9763 58.9153 39.9928 54.1175 40.0075 49.8269L40.0081 49.646Z" fill="white"/>
</svg>
