<svg width="20" height="20" viewBox="0 0 20 20" fill="none" xmlns="http://www.w3.org/2000/svg">
<path d="M17.6292 1.38967L11.0613 7.95755C10.7889 8.22988 10.7889 8.6704 11.0613 8.94273C11.3336 9.21506 11.7701 9.21105 12.0425 8.93873L18.6103 2.37085V5.71085C18.6103 6.09531 18.9187 6.40369 19.3032 6.40369C19.4954 6.40369 19.6676 6.32759 19.7958 6.19944C19.9239 6.07129 20 5.89908 20 5.70685V0.692832C20 0.30837 19.6916 3.11731e-07 19.3072 3.11731e-07L14.2932 0C13.9087 8.5726e-08 13.6003 0.308371 13.6003 0.692832C13.6003 1.07729 13.9087 1.38566 14.2931 1.38566L17.6292 1.38967Z" fill="white"/>
<path d="M5.70685 20C5.89908 20 6.07129 19.9239 6.19944 19.7958C6.32759 19.6676 6.40369 19.4954 6.40369 19.3032C6.40369 18.9187 6.09531 18.6103 5.71085 18.6103H2.37085L8.93873 12.0425C9.21105 11.7701 9.21105 11.3296 8.94273 11.0613C8.67441 10.793 8.22988 10.7889 7.95755 11.0613L1.38967 17.6292L1.38566 14.2932C1.38566 13.9087 1.07729 13.6003 0.692832 13.6003C0.30837 13.6003 -1.63659e-07 13.9087 0 14.2932L2.49385e-07 19.3072C3.35111e-07 19.6916 0.30837 20 0.692832 20H5.70685Z" fill="white"/>
<path d="M1.38566 5.71486L1.38566 2.37485L7.95354 8.94273C8.22587 9.21506 8.6664 9.21506 8.93873 8.94273C9.21105 8.6704 9.21105 8.22988 8.93873 7.95755L2.37084 1.38967L5.71085 1.38967C5.90308 1.38967 6.07529 1.31358 6.20344 1.18542C6.3316 1.05727 6.40769 0.885063 6.40769 0.692832C6.40769 0.308371 6.09932 8.10481e-07 5.71486 3.11711e-07L0.700841 1.20014e-06C0.332399 1.42225e-06 0.00800992 0.32439 0.00800994 0.692832L0.00800949 5.70685C0.00800958 6.09131 0.31638 6.39968 0.700841 6.39968C1.07729 6.40769 1.38967 6.09531 1.38566 5.71486Z" fill="white"/>
<path d="M11.0573 11.0613C10.7849 11.3336 10.7849 11.7741 11.0573 12.0465L17.6252 18.6143H14.2851C13.9007 18.6143 13.5923 18.9227 13.5923 19.3072C13.5923 19.6916 13.9007 20 14.2851 20H19.2992C19.4834 20 19.6596 19.9279 19.7917 19.7958C19.9199 19.6676 19.996 19.4874 19.996 19.3032V14.2891C19.996 13.9047 19.6876 13.5963 19.3032 13.5963C18.9187 13.5963 18.6103 13.9047 18.6103 14.2891V17.6292L12.0425 11.0613C11.7661 10.793 11.3296 10.7889 11.0573 11.0613Z" fill="white"/>
</svg>
