<svg width="30" height="30" viewBox="0 0 30 30" fill="none" xmlns="http://www.w3.org/2000/svg">
<path d="M26.664 23.904C26.46 24.336 26.196 24.744 25.848 25.128C25.26 25.776 24.612 26.244 23.88 26.544C23.16 26.844 22.38 27 21.54 27C20.316 27 19.008 26.712 17.628 26.124C16.248 25.536 14.868 24.744 13.5 23.748C12.12 22.74 10.812 21.624 9.564 20.388C8.328 19.14 7.212 17.832 6.216 16.464C5.232 15.096 4.44 13.728 3.864 12.372C3.288 11.004 3 9.696 3 8.448C3 7.632 3.144 6.852 3.432 6.132C3.72 5.4 4.176 4.728 4.812 4.128C5.58 3.372 6.42 3 7.308 3C7.644 3 7.98 3.072 8.28 3.216C8.592 3.36 8.868 3.576 9.084 3.888L11.868 7.812C12.084 8.112 12.24 8.388 12.348 8.652C12.456 8.904 12.516 9.156 12.516 9.384C12.516 9.672 12.432 9.96 12.264 10.236C12.108 10.512 11.88 10.8 11.592 11.088L10.68 12.036C10.548 12.168 10.488 12.324 10.488 12.516C10.488 12.612 10.5 12.696 10.524 12.792C10.56 12.888 10.596 12.96 10.62 13.032C10.836 13.428 11.208 13.944 11.736 14.568C12.276 15.192 12.852 15.828 13.476 16.464C14.124 17.1 14.748 17.688 15.384 18.228C16.008 18.756 16.524 19.116 16.932 19.332C16.992 19.356 17.064 19.392 17.148 19.428C17.244 19.464 17.34 19.476 17.448 19.476C17.652 19.476 17.808 19.404 17.94 19.272L18.852 18.372C19.152 18.072 19.44 17.844 19.716 17.7C19.992 17.532 20.268 17.448 20.568 17.448C20.796 17.448 21.036 17.496 21.3 17.604C21.564 17.712 21.84 17.868 22.14 18.072L26.112 20.892C26.424 21.108 26.64 21.36 26.772 21.66C26.892 21.96 26.964 22.26 26.964 22.596C26.964 23.028 26.868 23.472 26.664 23.904Z" stroke="#07192A" stroke-width="3"/>
<path d="M21.8001 12.4002C21.8001 11.6802 21.2361 10.5762 20.3961 9.6762C19.6281 8.8482 18.6081 8.2002 17.6001 8.2002" stroke="#07192A" stroke-width="3" stroke-linecap="round" stroke-linejoin="round"/>
<path d="M27.0001 11.4C27.0001 6.756 23.2441 3 18.6001 3" stroke="#07192A" stroke-width="3" stroke-linecap="round" stroke-linejoin="round"/>
</svg>
