<svg width="30" height="30" viewBox="0 0 30 30" fill="none" xmlns="http://www.w3.org/2000/svg">
<path fill-rule="evenodd" clip-rule="evenodd" d="M0 7.50006V22.5001C0 26.4001 3 30.0001 7.5 30.0001H22.5C27 30.0001 30 27.0001 30 22.5001V7.50011C30 3.08913 27.0429 0.000106812 22.5 6.10352e-05H7.5C3 6.10352e-05 0 3.00006 0 7.50006ZM4.98214 9.37506C5.15357 17.1751 9.25714 21.8786 16.0179 21.8786H16.4143V17.4108C18.8786 17.6572 20.7214 19.5001 21.4714 21.8786H25.0286C24.6768 20.5402 24.0476 19.2906 23.182 18.2108C22.3163 17.1311 21.2335 16.2453 20.0036 15.6108C21.104 14.9182 22.051 14.0077 22.7863 12.9352C23.5215 11.8628 24.0293 10.6512 24.2786 9.37506H21.0429C20.3571 11.8608 18.3429 14.1108 16.4143 14.3251V9.37506H13.125V18.0322C11.1321 17.5393 8.51786 15.1072 8.41072 9.37506H4.98214Z" fill="#07192A"/>
</svg>
