<svg width="400" height="450" viewBox="0 0 400 450" fill="none" xmlns="http://www.w3.org/2000/svg">
<g filter="url(#filter0_b_26_529)">
<path d="M299.964 0H100.049V100H299.964V0Z" fill="white" fill-opacity="0.2"/>
<path d="M0.0813486 146.46C0.107594 138.794 0.0964686 125.835 0.0866627 114.414C0.0820395 109.029 0.0777097 103.986 0.0777278 99.9998L100.035 100C100.035 104.164 100.039 111.298 100.043 119.605V119.622C100.053 139.686 100.067 166.583 100.041 175L100.021 181.187C99.9711 196.495 99.9231 211.145 100.043 225C100.561 285.015 110.879 330.187 199.996 350C289.113 330.187 299.439 285.015 299.957 225C300.077 211.142 300.029 196.493 299.979 181.182L299.959 175C299.933 166.589 299.947 139.728 299.957 119.669V119.62C299.961 111.307 299.964 104.167 299.964 100L399.922 99.9998C399.922 103.988 399.918 109.035 399.913 114.424C399.904 125.843 399.892 138.796 399.919 146.46L399.925 148.268C400.072 191.173 400.237 239.152 397.946 265.5C397.946 350 349.928 412.5 199.996 450C50.0641 412.5 2.0544 350 2.0544 265.5C-0.237006 239.153 -0.0722211 191.175 0.0751405 148.269L0.0813486 146.46Z" fill="white" fill-opacity="0.2"/>
</g>
<defs>
<filter id="filter0_b_26_529" x="-20" y="-20" width="440" height="490" filterUnits="userSpaceOnUse" color-interpolation-filters="sRGB">
<feFlood flood-opacity="0" result="BackgroundImageFix"/>
<feGaussianBlur in="BackgroundImageFix" stdDeviation="10"/>
<feComposite in2="SourceAlpha" operator="in" result="effect1_backgroundBlur_26_529"/>
<feBlend mode="normal" in="SourceGraphic" in2="effect1_backgroundBlur_26_529" result="shape"/>
</filter>
</defs>
</svg>
